0	1.074225039713663
1	0.109588879866316
2	0.00275793000473406
3	0.006752349516171261
4	0.002474717423425548
5	6.107519699951897e-05
6	1.964780271329668e-06
7	5.779749345984162e-07
8	1.385077973165699e-07
9	6.346736045352228e-09
10	4.440765741893157e-09
11	1.827105595292311e-09
12	7.346028689861339e-11
13	4.943052000702663e-11
14	3.454367217617382e-12
15	6.172167811568929e-14
16	5.026578112077296e-15
17	1.618930683955355e-15
18	1.726049858596923e-16
19	5.052382123782451e-17
20	1.125401855039954e-16
21	6.765421556309548e-17
22	7.914675859144182e-17
