0	1.074225039713663
1	0.254465528788645
2	0.06007603536816142
3	0.01502222904195505
4	0.003411883426367516
5	0.001060990480492258
6	0.0002706954144531325
7	6.794731402127562e-05
8	1.713896966235636e-05
9	4.269997932008834e-06
10	1.059465992364573e-06
11	2.647612088568351e-07
12	6.605489052979342e-08
13	1.651966933646082e-08
14	4.062708040429228e-09
15	9.562342599602619e-10
16	2.588404670721828e-10
17	6.47056451388156e-11
18	1.617302711025281e-11
19	4.043991920846257e-12
20	1.010934825435017e-12
21	2.526314660938889e-13
22	6.32096371772084e-14
