0	1.074225039713663
1	0.5371125198568317
2	0.2730471051953911
3	0.1356339403511698
4	0.0690562990390936
5	0.03452808568010764
6	0.01722683319678575
7	0.008549113482760362
8	0.004339978605134602
9	0.002169929300893459
10	0.001084753822754642
11	0.0005422191340272141
12	0.0002709235814356008
13	0.0001352184096691258
14	6.736872377402763e-05
15	3.344232849394435e-05
16	1.696298736602784e-05
17	8.481340446212307e-06
18	4.240507995066124e-06
19	2.1203416142564e-06
20	1.060192993497045e-06
21	5.300900941934954e-07
22	2.650394969108943e-07
